
# Last name ; First name ; student ID ; preferences   ; preferred team partner # Notes

LN_01       ; FN_01      ; ID_01      ; 2|3|1         ; ID_27
LN_02       ; FN_02      ; ID_02      ; 6|1|4
LN_03       ; FN_03      ; ID_03      ; 7|2|1
LN_04       ; FN_04      ; ID_04      ; 7|3|1
LN_05       ; FN_05      ; ID_05      ; 1|2|3         ; ID_24
LN_06       ; FN_06      ; ID_06      ; 1|6|4
LN_07       ; FN_07      ; ID_07      ; 1|2                   # Too few preferences (require 3). Treat groups 3,4,5,6,7 as third preference
LN_08       ; FN_08      ; ID_08      ; 7|4|3|2|1             # Gave more than 3 preferences, but that's ok.
LN_09       ; FN_09      ; ID_09      ; 3|2           ; ID_12
LN_10       ; FN_10      ; ID_10      ; 1|4|5
LN_11       ; FN_11      ; ID_11      ; 4|6|2|5|3|1|7
LN_12       ; FN_12      ; ID_12      ; 3|2|4         ; ID_09
LN_13       ; FN_13      ; ID_13      ; 3|5|4
LN_14       ; FN_14      ; ID_14      ; 3|4|7
LN_15       ; FN_15      ; ID_15      ; 4|3|1
LN_16       ; FN_16      ; ID_16      ; 5|4|6|7
LN_17       ; FN_17      ; ID_17      ; 1|2|3
LN_18       ; FN_18      ; ID_18      ; 4|6|2         ; ID_21
LN_19       ; FN_19      ; ID_19      ; 4|6|5
LN_20       ; FN_20      ; ID_20      ; 1|7|2|3
LN_21       ; FN_21      ; ID_21      ; 4|6|2         ; ID_18
LN_22       ; FN_22      ; ID_22      ; 6|7
LN_23       ; FN_23      ; ID_23      ; 1|4|6
LN_24       ; FN_24      ; ID_24      ; 1|2|3         ; ID_05
LN_25       ; FN_25      ; ID_25      ; 4|6|1         ; ID_32
LN_26       ; FN_26      ; ID_26      ; 6|1|4         ; ID_28
LN_27       ; FN_27      ; ID_27      ; 2|3|4         ; ID_01
LN_28       ; FN_28      ; ID_28      ; 6|1|4         ; ID_26
LN_29       ; FN_29      ; ID_29      ; 7|1|6         ; ID_30
LN_30       ; FN_30      ; ID_30      ; 7|1|2         ; ID_29
LN_31       ; FN_31      ; ID_31      ; 1|4|2
LN_32       ; FN_32      ; ID_32      ; 4|6|1         ; ID_25
LN_33       ; FN_33      ; ID_33      ; 3|2|6
LN_34       ; FN_34      ; ID_34      ; 3|1|6
LN_35       ; FN_35      ; ID_35      ; 7|2|3
LN_36       ; FN_36      ; ID_36      ; 1|2|3
LN_37       ; FN_37      ; ID_37      ; 1|2|3         ; ID_55
LN_38       ; FN_38      ; ID_38      ; 5|1|3|4
LN_39       ; FN_39      ; ID_39      ; 3|2|6
LN_40       ; FN_40      ; ID_40      ; 1|6|4         ; ID_65
LN_41       ; FN_41      ; ID_41      ; 3|1|2|4|5     ; ID_58
LN_42       ; FN_42      ; ID_42      ; 1|4|3|5|2|6|7 ; ID_44
LN_43       ; FN_43      ; ID_43      ; 3|4|1         ; ID_52
LN_44       ; FN_44      ; ID_44      ; 1|3|4|5|2|6|7 ; ID_42
LN_45       ; FN_45      ; ID_45      ; 3|1|2
LN_46       ; FN_46      ; ID_46      ; 3|2|6
LN_47       ; FN_47      ; ID_47      ; 5|7|6
LN_48       ; FN_48      ; ID_48      ; 1|2|6         ; ID_54
LN_49       ; FN_49      ; ID_49      ; 3|4|1|6
LN_50       ; FN_50      ; ID_50      ; 4|7|6
LN_51       ; FN_51      ; ID_51      ; 3|1|4
LN_52       ; FN_52      ; ID_52      ; 3|4|1         ; ID_43
LN_53       ; FN_53      ; ID_53      ; 2|1|4         ; ID_57
LN_54       ; FN_54      ; ID_54      ; 1|2|6         ; ID_48
LN_55       ; FN_55      ; ID_55      ; 1|2|3         ; ID_37
LN_56       ; FN_56      ; ID_56      ; 2|3|6
LN_57       ; FN_57      ; ID_57      ; 2|1|3         ; ID_53
LN_58       ; FN_58      ; ID_58      ; 3|1|4         ; ID_41
LN_59       ; FN_59      ; ID_59      ; 4|3|6|1|7
LN_60       ; FN_60      ; ID_60      ; 7|1|2
LN_61       ; FN_61      ; ID_61      ; 2|3|6
LN_62       ; FN_62      ; ID_62      ; 1|2|7
LN_63       ; FN_63      ; ID_63      ; 1|7|3
LN_64       ; FN_64      ; ID_64      ; 7|4|5
LN_65       ; FN_65      ; ID_65      ; 1|6|4         ; ID_40
LN_66       ; FN_66      ; ID_66      ; 4|7|6
LN_67       ; FN_67      ; ID_67      ;                       # Didn't provide preferences. Treat all groups as first preference
